<?xml version="1.0" encoding="UTF-8" standalone="no"?>
<svg width="193px" height="48px" viewBox="0 0 193 48" version="1.1" xmlns="http://www.w3.org/2000/svg" xmlns:xlink="http://www.w3.org/1999/xlink">
    <!-- Generator: Sketch 3.6.1 (26313) - http://www.bohemiancoding.com/sketch -->
    <title>Group 2</title>
    <desc>Created with Sketch.</desc>
    <defs></defs>
    <g id="Page-1" stroke="none" stroke-width="1" fill="none" fill-rule="evenodd">
        <g id="Desktop-HD" transform="translate(-40.000000, -39.000000)" fill="#A5D296">
            <g id="Group-2" transform="translate(40.000000, 39.000000)">
                <path d="M54.25,25.4 L54.25,28.05 L54.25,29.1 C54.25,30.0666715 54.0583352,30.9666625 53.675,31.8 C53.2916647,32.6333375 52.7916697,33.3583303 52.175,33.975 C51.5583302,34.5916698 50.8250042,35.0833315 49.975,35.45 C49.1249957,35.8166685 48.233338,36 47.3,36 C46.3333285,36 45.4333375,35.8166685 44.6,35.45 C43.7666625,35.0833315 43.0416697,34.5916698 42.425,33.975 C41.8083302,33.3583303 41.3083352,32.6333375 40.925,31.8 C40.5416647,30.9666625 40.35,30.0666715 40.35,29.1 L40.35,28.55 L40.35,24.2 L40.35,20 L40.35,17.25 L40.35,15.85 C40.3833335,14.916662 40.5833315,14.0333375 40.95,13.2 C41.3166685,12.3666625 41.8166635,11.6416698 42.45,11.025 C43.0833365,10.4083302 43.8166625,9.92500175 44.65,9.575 C45.4833375,9.22499825 46.366662,9.05 47.3,9.05 C48.233338,9.05 49.1166625,9.22499825 49.95,9.575 C50.7833375,9.92500175 51.5166635,10.4083302 52.15,11.025 C52.7833365,11.6416698 53.2833315,12.3666625 53.65,13.2 C54.0166685,14.0333375 54.2166665,14.916662 54.25,15.85 L54.25,17.6 L54.25,19.95 L54.25,21.6 L49.8,21.6 L48.8,21.6 L44.9,21.6 L44.9,28.95 C44.9,29.61667 45.1416642,30.1916643 45.625,30.675 C46.1083357,31.1583357 46.68333,31.4 47.35,31.4 C48.01667,31.4 48.5916642,31.1583357 49.075,30.675 C49.5583357,30.1916643 49.8,29.61667 49.8,28.95 L49.8,25.4 L54.25,25.4 Z M44.9,17.8 L49.8,17.8 L49.8,15.7 C49.8,15.03333 49.5583357,14.4583358 49.075,13.975 C48.5916642,13.4916642 48.01667,13.25 47.35,13.25 C46.68333,13.25 46.1083357,13.4916642 45.625,13.975 C45.1416642,14.4583358 44.9,15.03333 44.9,15.7 L44.9,17.8 Z M73.8,11.65 C74.2333355,12.116669 74.6333315,12.649997 75,13.25 C75.3000015,13.783336 75.583332,14.416663 75.85,15.15 C76.116668,15.883337 76.25,16.7333285 76.25,17.7 L76.25,31.1 L76.25,31.8 L76.25,36 L71.35,36 L71.25,36 L71.25,31.8 L71.25,29.6 L71.25,17.4 C71.25,17.0333315 71.150001,16.683335 70.95,16.35 C70.749999,16.016665 70.4916683,15.7250012 70.175,15.475 C69.8583317,15.2249987 69.500002,15.033334 69.1,14.9 C68.699998,14.766666 68.3166685,14.7 67.95,14.7 C67.5833315,14.7 67.1750023,14.766666 66.725,14.9 C66.2749978,15.033334 65.850002,15.2249987 65.45,15.475 C65.049998,15.7250012 64.716668,16.016665 64.45,16.35 C64.183332,16.683335 64.05,17.0333315 64.05,17.4 L64.05,31.1 L64.05,31.8 L64.05,36 L64,36 L60.35,36 L59.15,36 L59.15,9.6 L64,9.6 L64,11 C64.66667,10.5666645 65.3916627,10.2250012 66.175,9.975 C66.9583372,9.72499875 67.7666625,9.6 68.6,9.6 C69.600005,9.6 70.5499955,9.7833315 71.45,10.15 C72.3500045,10.5166685 73.13333,11.0166635 73.8,11.65 L73.8,11.65 Z M94.5,27.05 L94.5,28.05 L94.5,29.1 C94.5,30.0666715 94.3166685,30.9666625 93.95,31.8 C93.5833315,32.6333375 93.0916697,33.3583303 92.475,33.975 C91.8583302,34.5916698 91.1250042,35.0833315 90.275,35.45 C89.4249957,35.8166685 88.5166715,36 87.55,36 C86.5833285,36 85.6833375,35.8166685 84.85,35.45 C84.0166625,35.0833315 83.2916697,34.5916698 82.675,33.975 C82.0583302,33.3583303 81.5583352,32.6333375 81.175,31.8 C80.7916647,30.9666625 80.6,30.0666715 80.6,29.1 L80.6,28.55 L80.6,24.2 L80.6,19.95 L80.6,17.2 L80.6,15.8 C80.6333335,14.866662 80.8333315,13.9833375 81.2,13.15 C81.5666685,12.3166625 82.0583302,11.5916697 82.675,10.975 C83.2916697,10.3583302 84.0166625,9.87500175 84.85,9.525 C85.6833375,9.17499825 86.5833285,9 87.55,9 C88.483338,9 89.3666625,9.17499825 90.2,9.525 C91.0333375,9.87500175 91.7666635,10.3583302 92.4,10.975 C93.0333365,11.5916697 93.5333315,12.3166625 93.9,13.15 C94.2666685,13.9833375 94.4666665,14.866662 94.5,15.8 L94.5,17.35 L90.05,17.35 L90.05,15.65 C90.05,14.98333 89.8083357,14.4083357 89.325,13.925 C88.8416642,13.4416643 88.26667,13.2 87.6,13.2 C86.93333,13.2 86.3583357,13.4416643 85.875,13.925 C85.3916642,14.4083357 85.15,14.98333 85.15,15.65 L85.15,28.9 C85.15,29.56667 85.3916642,30.1416642 85.875,30.625 C86.3583357,31.1083358 86.93333,31.35 87.6,31.35 C88.26667,31.35 88.8416642,31.1083358 89.325,30.625 C89.8083357,30.1416642 90.05,29.56667 90.05,28.9 L90.05,27.05 L94.5,27.05 Z M107.6,13.8 C107.466666,13.7666665 107.266668,13.75 107,13.75 C106.399997,13.75 105.79167,13.9249983 105.175,14.275 C104.55833,14.6250017 104.166668,15.066664 104,15.6 L104,36.05 L99.1,36.05 L99.1,9.7 L104,9.7 L104,10.35 C105.133339,9.7833305 106.333327,9.5 107.6,9.5 L107.6,13.8 Z M127.3,9.65 L127.3,22.85 L127.3,26.95 L127.3,30.05 L127.3,34.2 L127.3,40 C127.3,40.066667 127.291667,40.133333 127.275,40.2 C127.258333,40.266667 127.25,40.333333 127.25,40.4 L127.25,40.65 C127.183333,41.583338 126.950002,42.4583292 126.55,43.275 C126.149998,44.0916707 125.633336,44.8083302 125,45.425 C124.366664,46.0416698 123.625004,46.5249983 122.775,46.875 C121.924996,47.2250017 121.033338,47.4 120.1,47.4 C119.933333,47.4 119.766668,47.3916667 119.6,47.375 C119.433333,47.3583333 119.266668,47.3333335 119.1,47.3 L119.1,42.85 C119.266668,42.916667 119.424999,42.9666665 119.575,43 C119.725001,43.0333335 119.883332,43.05 120.05,43.05 C120.750003,43.05 121.349998,42.8000025 121.85,42.3 C122.350003,41.7999975 122.6,41.2000035 122.6,40.5 L122.6,40.2 L122.6,34.8 C121.466661,35.3666695 120.300006,35.65 119.1,35.65 C118.133329,35.65 117.225004,35.4750018 116.375,35.125 C115.524996,34.7749982 114.79167,34.300003 114.175,33.7 C113.55833,33.099997 113.058335,32.3916708 112.675,31.575 C112.291665,30.7583293 112.1,29.883338 112.1,28.95 L112.1,27.95 L112.1,24.2 L112.1,20.1 L112.1,18.1 L112.1,17.8 L112.1,16.1 L112.1,9.65 L116.6,9.65 L116.6,15.95 L116.6,17.65 L116.6,18.1 L116.6,28.8 C116.6,29.46667 116.841664,30.0249977 117.325,30.475 C117.808336,30.9250022 118.38333,31.15 119.05,31.15 L119.4,31.15 C120.266671,31.15 120.924998,31.0083348 121.375,30.725 C121.825002,30.4416652 122.133332,30.1166685 122.3,29.75 C122.500001,29.349998 122.6,28.8666695 122.6,28.3 L122.6,10.35 L122.6,9.7 L122.6,9.65 L127.3,9.65 Z M132.7,9.65 L137.55,9.65 L137.45,36.05 L132.6,36.05 L132.7,9.65 Z M135.15,5.5 C134.38333,5.5 133.750002,5.24166925 133.25,4.725 C132.749998,4.20833075 132.5,3.583337 132.5,2.85 C132.5,2.116663 132.733331,1.49166925 133.2,0.975 C133.666669,0.45833075 134.28333,0.2 135.05,0.2 C135.783337,0.2 136.424997,0.45833075 136.975,0.975 C137.525003,1.49166925 137.8,2.116663 137.8,2.85 C137.8,3.583337 137.541669,4.20833075 137.025,4.725 C136.508331,5.24166925 135.883337,5.5 135.15,5.5 L135.15,5.5 Z M171.9,29.65 L171.9,31.85 L171.9,36 L166.95,36 L166.95,31.85 L166.95,29.65 L166.95,17.45 C166.95,17.0833315 166.850001,16.733335 166.65,16.4 C166.449999,16.066665 166.191668,15.7750012 165.875,15.525 C165.558332,15.2749988 165.200002,15.083334 164.8,14.95 C164.399998,14.816666 164.016669,14.75 163.65,14.75 C163.283332,14.75 162.900002,14.816666 162.5,14.95 C162.099998,15.083334 161.741668,15.2749988 161.425,15.525 C161.108332,15.7750012 160.850001,16.066665 160.65,16.4 C160.449999,16.733335 160.35,17.0833315 160.35,17.45 L160.35,31.1 L160.35,31.85 L160.35,36 L155.45,36 L155.35,36 L155.35,31.85 L155.35,29.65 L155.35,17.45 C155.35,17.0833315 155.250001,16.733335 155.05,16.4 C154.849999,16.066665 154.591668,15.7750012 154.275,15.525 C153.958332,15.2749988 153.600002,15.083334 153.2,14.95 C152.799998,14.816666 152.416669,14.75 152.05,14.75 C151.683332,14.75 151.275002,14.816666 150.825,14.95 C150.374998,15.083334 149.958335,15.2749988 149.575,15.525 C149.191665,15.7750012 148.866668,16.066665 148.6,16.4 C148.333332,16.733335 148.2,17.0833315 148.2,17.45 L148.2,31.1 L148.2,31.85 L148.2,36 L148.15,36 L144.5,36 L143.3,36 L143.3,9.7 L148.15,9.7 L148.15,11.1 C149.550007,10.166662 151.066659,9.7 152.7,9.7 C153.700005,9.7 154.649996,9.87499825 155.55,10.225 C156.450005,10.5750018 157.23333,11.08333 157.9,11.75 C158.56667,11.08333 159.449995,10.5750018 160.55,10.225 C161.650006,9.87499825 162.699995,9.7 163.7,9.7 C164.733339,9.7 165.749995,9.899998 166.75,10.3 C167.750005,10.700002 168.624996,11.23333 169.375,11.9 C170.125004,12.56667 170.733331,13.366662 171.2,14.3 C171.666669,15.233338 171.9,16.2166615 171.9,17.25 L171.9,29.65 Z M192.9,9.75 L192.9,23 L192.9,27.1 L192.9,30.2 L192.9,34.35 L192.9,40.15 L192.9,40.85 C192.833333,41.783338 192.600002,42.6583293 192.2,43.475 C191.799998,44.2916708 191.283336,44.999997 190.65,45.6 C190.016663,46.200003 189.275004,46.6749983 188.425,47.025 C187.574996,47.3750018 186.683338,47.55 185.75,47.55 C185.583333,47.55 185.416668,47.5416667 185.25,47.525 C185.083333,47.5083332 184.916668,47.5 184.75,47.5 L184.75,43 C185.016668,43.133334 185.333332,43.2 185.7,43.2 C186.400003,43.2 186.991664,42.9500025 187.475,42.45 C187.958336,41.9499975 188.2,41.3500035 188.2,40.65 L188.2,40.35 L188.25,40.35 L188.25,34.95 C187.116661,35.5166695 185.950006,35.8 184.75,35.8 C183.783329,35.8 182.875004,35.6250017 182.025,35.275 C181.174996,34.9249983 180.433336,34.450003 179.8,33.85 C179.166663,33.249997 178.666669,32.5416707 178.3,31.725 C177.933332,30.9083292 177.75,30.033338 177.75,29.1 L177.7,29.1 L177.7,28.1 L177.7,24.35 L177.7,20.25 L177.7,17.9 L177.7,16.2 L177.75,16.2 C177.75,15.2999955 177.941665,14.450004 178.325,13.65 C178.708335,12.849996 179.216663,12.150003 179.85,11.55 C180.483337,10.949997 181.216663,10.483335 182.05,10.15 C182.883338,9.816665 183.783329,9.65 184.75,9.65 C185.916673,9.65 187.083327,9.916664 188.25,10.45 L188.25,9.85 L188.25,9.75 L192.9,9.75 Z M187.75,16.1 C187.75,15.766665 187.658334,15.4583347 187.475,15.175 C187.291666,14.8916653 187.050002,14.6416677 186.75,14.425 C186.449999,14.2083322 186.116669,14.033334 185.75,13.9 C185.383331,13.766666 185.033335,13.7 184.7,13.7 C184.03333,13.7 183.458336,13.933331 182.975,14.4 C182.491664,14.866669 182.25,15.43333 182.25,16.1 L182.25,28.95 C182.25,29.61667 182.491664,30.1749978 182.975,30.625 C183.458336,31.0750022 184.03333,31.3 184.7,31.3 C185.033335,31.3 185.383331,31.2416672 185.75,31.125 C186.116669,31.0083328 186.449999,30.8416677 186.75,30.625 C187.050002,30.4083323 187.291666,30.1583348 187.475,29.875 C187.658334,29.5916652 187.75,29.283335 187.75,28.95 L187.75,16.1 Z" id="encryimg"></path>
                <g id="Fill-17" transform="translate(0.000000, 6.500000)">
                    <path d="M16,6.66666667 C18.94,6.66666667 21.3333333,9.05866667 21.3333333,12 C21.3333333,13.8906667 20.3586667,15.5946667 18.7586667,16.5586667 L19.992,24.5653333 C20.0213333,24.756 19.9653333,24.952 19.8386667,25.1 C19.712,25.248 19.5266667,25.3333333 19.3333333,25.3333333 L12.6666667,25.3333333 C12.472,25.3333333 12.2866667,25.248 12.16,25.1 C12.0333333,24.952 11.9773333,24.7573333 12.008,24.5653333 L13.2373333,16.5586667 C11.64,15.5946667 10.6666667,13.8906667 10.6666667,12 C10.6666667,9.05866667 13.0586667,6.66666667 16,6.66666667 M16,32 C24.8213333,32 32,24.8213333 32,16 C32,7.17733333 24.8213333,0 16,0 C7.17733333,0 0,7.17733333 0,16 C0,24.8213333 7.17733333,32 16,32"></path>
                </g>
            </g>
        </g>
    </g>
</svg>